…
tbd
```

    ## # A tibble: 21 x 2
    ##    pair  set      
    ##    <chr> <chr>    
    ##  1 X, S  {R}      
    ##  2 X, T  {R, S}   
    ##  3 X, P  {R, S, T}
    ##  4 X, U  {}       
    ##  5 X, V  {}       
    ##  6 X, Y  {}       
    ##  7 R, T  {S}      
    ##  8 R, P  {S, T}   
    ##  9 R, U  {}       
    ## 10 R, V  {}       
    ## # … with 11 more rows
…
